module gitlab.com/adminfromhell/alarmclock

require (
	cloud.google.com/go v0.26.0
	contrib.go.opencensus.io/exporter/stackdriver v0.6.0 // indirect
	github.com/golang/glog v0.0.0-20160126235308-23def4e6c14b // indirect
	github.com/golang/protobuf v1.2.0 // indirect
	github.com/google/go-cmp v0.2.0 // indirect
	github.com/googleapis/gax-go v2.0.0+incompatible // indirect
	go.opencensus.io v0.15.0 // indirect
	golang.org/x/net v0.0.0-20180826012351-8a410e7b638d // indirect
	golang.org/x/oauth2 v0.0.0-20180821212333-d2e6202438be // indirect
	golang.org/x/sync v0.0.0-20180314180146-1d60e4601c6f // indirect
	golang.org/x/sys v0.0.0-20180830151530-49385e6e1522 // indirect
	golang.org/x/text v0.3.0 // indirect
	google.golang.org/api v0.0.0-20180829000535-087779f1d2c9 // indirect
	google.golang.org/appengine v1.1.0 // indirect
	google.golang.org/genproto v0.0.0-20180817151627-c66870c02cf8 // indirect
	google.golang.org/grpc v1.14.0 // indirect
)
